-- Merging decision tree log ---
manifest
ADDED from E:\wooZy\Star Cineplex\StarCineplex\app\src\main\AndroidManifest.xml:2:1-39:12
	package
		ADDED from E:\wooZy\Star Cineplex\StarCineplex\app\src\main\AndroidManifest.xml:3:5-46
		INJECTED from E:\wooZy\Star Cineplex\StarCineplex\app\src\main\AndroidManifest.xml
		INJECTED from E:\wooZy\Star Cineplex\StarCineplex\app\src\main\AndroidManifest.xml
	android:versionName
		INJECTED from E:\wooZy\Star Cineplex\StarCineplex\app\src\main\AndroidManifest.xml
		INJECTED from E:\wooZy\Star Cineplex\StarCineplex\app\src\main\AndroidManifest.xml
	xmlns:android
		ADDED from E:\wooZy\Star Cineplex\StarCineplex\app\src\main\AndroidManifest.xml:2:11-69
	android:versionCode
		INJECTED from E:\wooZy\Star Cineplex\StarCineplex\app\src\main\AndroidManifest.xml
		INJECTED from E:\wooZy\Star Cineplex\StarCineplex\app\src\main\AndroidManifest.xml
uses-permission#android.permission.INTERNET
ADDED from E:\wooZy\Star Cineplex\StarCineplex\app\src\main\AndroidManifest.xml:5:5-67
MERGED from [com.google.android.gms:play-services-ads:8.4.0] E:\wooZy\Star Cineplex\StarCineplex\app\build\intermediates\exploded-aar\com.google.android.gms\play-services-ads\8.4.0\AndroidManifest.xml:20:5-66
	android:name
		ADDED from E:\wooZy\Star Cineplex\StarCineplex\app\src\main\AndroidManifest.xml:5:22-64
uses-permission#android.permission.CALL_PHONE
ADDED from E:\wooZy\Star Cineplex\StarCineplex\app\src\main\AndroidManifest.xml:6:5-69
	android:name
		ADDED from E:\wooZy\Star Cineplex\StarCineplex\app\src\main\AndroidManifest.xml:6:22-66
uses-permission#android.permission.ACCESS_NETWORK_STATE
ADDED from E:\wooZy\Star Cineplex\StarCineplex\app\src\main\AndroidManifest.xml:7:5-79
MERGED from [com.google.android.gms:play-services-ads:8.4.0] E:\wooZy\Star Cineplex\StarCineplex\app\build\intermediates\exploded-aar\com.google.android.gms\play-services-ads\8.4.0\AndroidManifest.xml:21:5-78
	android:name
		ADDED from E:\wooZy\Star Cineplex\StarCineplex\app\src\main\AndroidManifest.xml:7:22-76
application
ADDED from E:\wooZy\Star Cineplex\StarCineplex\app\src\main\AndroidManifest.xml:10:5-37:19
MERGED from [com.android.support:appcompat-v7:23.3.0] E:\wooZy\Star Cineplex\StarCineplex\app\build\intermediates\exploded-aar\com.android.support\appcompat-v7\23.3.0\AndroidManifest.xml:25:5-20
MERGED from [com.android.support:support-vector-drawable:23.3.0] E:\wooZy\Star Cineplex\StarCineplex\app\build\intermediates\exploded-aar\com.android.support\support-vector-drawable\23.3.0\AndroidManifest.xml:7:5-20
MERGED from [com.android.support:support-v4:23.3.0] E:\wooZy\Star Cineplex\StarCineplex\app\build\intermediates\exploded-aar\com.android.support\support-v4\23.3.0\AndroidManifest.xml:22:5-20
MERGED from [com.android.support:animated-vector-drawable:23.3.0] E:\wooZy\Star Cineplex\StarCineplex\app\build\intermediates\exploded-aar\com.android.support\animated-vector-drawable\23.3.0\AndroidManifest.xml:7:5-20
MERGED from [com.android.support:support-vector-drawable:23.3.0] E:\wooZy\Star Cineplex\StarCineplex\app\build\intermediates\exploded-aar\com.android.support\support-vector-drawable\23.3.0\AndroidManifest.xml:7:5-20
MERGED from [com.android.support:support-v4:23.3.0] E:\wooZy\Star Cineplex\StarCineplex\app\build\intermediates\exploded-aar\com.android.support\support-v4\23.3.0\AndroidManifest.xml:22:5-20
MERGED from [com.android.support:support-v4:23.3.0] E:\wooZy\Star Cineplex\StarCineplex\app\build\intermediates\exploded-aar\com.android.support\support-v4\23.3.0\AndroidManifest.xml:22:5-20
MERGED from [com.android.support:support-v4:23.3.0] E:\wooZy\Star Cineplex\StarCineplex\app\build\intermediates\exploded-aar\com.android.support\support-v4\23.3.0\AndroidManifest.xml:22:5-20
MERGED from [com.android.support:design:23.3.0] E:\wooZy\Star Cineplex\StarCineplex\app\build\intermediates\exploded-aar\com.android.support\design\23.3.0\AndroidManifest.xml:22:5-20
MERGED from [com.android.support:appcompat-v7:23.3.0] E:\wooZy\Star Cineplex\StarCineplex\app\build\intermediates\exploded-aar\com.android.support\appcompat-v7\23.3.0\AndroidManifest.xml:25:5-20
MERGED from [com.android.support:support-vector-drawable:23.3.0] E:\wooZy\Star Cineplex\StarCineplex\app\build\intermediates\exploded-aar\com.android.support\support-vector-drawable\23.3.0\AndroidManifest.xml:7:5-20
MERGED from [com.android.support:support-v4:23.3.0] E:\wooZy\Star Cineplex\StarCineplex\app\build\intermediates\exploded-aar\com.android.support\support-v4\23.3.0\AndroidManifest.xml:22:5-20
MERGED from [com.android.support:animated-vector-drawable:23.3.0] E:\wooZy\Star Cineplex\StarCineplex\app\build\intermediates\exploded-aar\com.android.support\animated-vector-drawable\23.3.0\AndroidManifest.xml:7:5-20
MERGED from [com.android.support:support-vector-drawable:23.3.0] E:\wooZy\Star Cineplex\StarCineplex\app\build\intermediates\exploded-aar\com.android.support\support-vector-drawable\23.3.0\AndroidManifest.xml:7:5-20
MERGED from [com.android.support:support-v4:23.3.0] E:\wooZy\Star Cineplex\StarCineplex\app\build\intermediates\exploded-aar\com.android.support\support-v4\23.3.0\AndroidManifest.xml:22:5-20
MERGED from [com.android.support:support-v4:23.3.0] E:\wooZy\Star Cineplex\StarCineplex\app\build\intermediates\exploded-aar\com.android.support\support-v4\23.3.0\AndroidManifest.xml:22:5-20
MERGED from [com.android.support:support-v4:23.3.0] E:\wooZy\Star Cineplex\StarCineplex\app\build\intermediates\exploded-aar\com.android.support\support-v4\23.3.0\AndroidManifest.xml:22:5-20
MERGED from [com.android.support:support-v4:23.3.0] E:\wooZy\Star Cineplex\StarCineplex\app\build\intermediates\exploded-aar\com.android.support\support-v4\23.3.0\AndroidManifest.xml:22:5-20
MERGED from [com.google.android.gms:play-services-ads:8.4.0] E:\wooZy\Star Cineplex\StarCineplex\app\build\intermediates\exploded-aar\com.google.android.gms\play-services-ads\8.4.0\AndroidManifest.xml:24:5-32:19
MERGED from [com.google.android.gms:play-services-basement:8.4.0] E:\wooZy\Star Cineplex\StarCineplex\app\build\intermediates\exploded-aar\com.google.android.gms\play-services-basement\8.4.0\AndroidManifest.xml:20:5-24:19
MERGED from [com.android.support:support-v4:23.3.0] E:\wooZy\Star Cineplex\StarCineplex\app\build\intermediates\exploded-aar\com.android.support\support-v4\23.3.0\AndroidManifest.xml:22:5-20
MERGED from [com.android.support:support-v4:23.3.0] E:\wooZy\Star Cineplex\StarCineplex\app\build\intermediates\exploded-aar\com.android.support\support-v4\23.3.0\AndroidManifest.xml:22:5-20
MERGED from [com.android.support:cardview-v7:23.3.0] E:\wooZy\Star Cineplex\StarCineplex\app\build\intermediates\exploded-aar\com.android.support\cardview-v7\23.3.0\AndroidManifest.xml:22:5-20
	android:label
		ADDED from E:\wooZy\Star Cineplex\StarCineplex\app\src\main\AndroidManifest.xml:14:9-41
	android:allowBackup
		ADDED from E:\wooZy\Star Cineplex\StarCineplex\app\src\main\AndroidManifest.xml:12:9-35
	android:icon
		ADDED from E:\wooZy\Star Cineplex\StarCineplex\app\src\main\AndroidManifest.xml:13:9-43
	android:theme
		ADDED from E:\wooZy\Star Cineplex\StarCineplex\app\src\main\AndroidManifest.xml:15:9-40
	android:name
		ADDED from E:\wooZy\Star Cineplex\StarCineplex\app\src\main\AndroidManifest.xml:11:9-91
activity#com.starcineplex.woozy.cineplex.Activity.SplashActivity
ADDED from E:\wooZy\Star Cineplex\StarCineplex\app\src\main\AndroidManifest.xml:18:9-26:20
	android:label
		ADDED from E:\wooZy\Star Cineplex\StarCineplex\app\src\main\AndroidManifest.xml:20:13-45
	android:name
		ADDED from E:\wooZy\Star Cineplex\StarCineplex\app\src\main\AndroidManifest.xml:19:13-83
intent-filter#android.intent.action.MAIN+android.intent.category.DEFAULT+android.intent.category.LAUNCHER
ADDED from E:\wooZy\Star Cineplex\StarCineplex\app\src\main\AndroidManifest.xml:21:13-25:29
action#android.intent.action.MAIN
ADDED from E:\wooZy\Star Cineplex\StarCineplex\app\src\main\AndroidManifest.xml:22:17-69
	android:name
		ADDED from E:\wooZy\Star Cineplex\StarCineplex\app\src\main\AndroidManifest.xml:22:25-66
category#android.intent.category.DEFAULT
ADDED from E:\wooZy\Star Cineplex\StarCineplex\app\src\main\AndroidManifest.xml:23:17-76
	android:name
		ADDED from E:\wooZy\Star Cineplex\StarCineplex\app\src\main\AndroidManifest.xml:23:27-73
category#android.intent.category.LAUNCHER
ADDED from E:\wooZy\Star Cineplex\StarCineplex\app\src\main\AndroidManifest.xml:24:17-77
	android:name
		ADDED from E:\wooZy\Star Cineplex\StarCineplex\app\src\main\AndroidManifest.xml:24:27-74
activity#com.starcineplex.woozy.cineplex.Activity.DetailMovieActivity
ADDED from E:\wooZy\Star Cineplex\StarCineplex\app\src\main\AndroidManifest.xml:27:9-31:47
	android:label
		ADDED from E:\wooZy\Star Cineplex\StarCineplex\app\src\main\AndroidManifest.xml:29:13-64
	android:parentActivityName
		ADDED from E:\wooZy\Star Cineplex\StarCineplex\app\src\main\AndroidManifest.xml:30:13-95
	android:theme
		ADDED from E:\wooZy\Star Cineplex\StarCineplex\app\src\main\AndroidManifest.xml:31:13-44
	android:name
		ADDED from E:\wooZy\Star Cineplex\StarCineplex\app\src\main\AndroidManifest.xml:28:13-88
activity#com.starcineplex.woozy.cineplex.Activity.HomeActivity
ADDED from E:\wooZy\Star Cineplex\StarCineplex\app\src\main\AndroidManifest.xml:33:9-36:56
	android:label
		ADDED from E:\wooZy\Star Cineplex\StarCineplex\app\src\main\AndroidManifest.xml:35:13-56
	android:theme
		ADDED from E:\wooZy\Star Cineplex\StarCineplex\app\src\main\AndroidManifest.xml:36:13-44
	android:name
		ADDED from E:\wooZy\Star Cineplex\StarCineplex\app\src\main\AndroidManifest.xml:34:13-81
uses-sdk
INJECTED from E:\wooZy\Star Cineplex\StarCineplex\app\src\main\AndroidManifest.xml reason: use-sdk injection requested
MERGED from [com.android.support:appcompat-v7:23.3.0] E:\wooZy\Star Cineplex\StarCineplex\app\build\intermediates\exploded-aar\com.android.support\appcompat-v7\23.3.0\AndroidManifest.xml:21:5-23:78
MERGED from [com.android.support:support-vector-drawable:23.3.0] E:\wooZy\Star Cineplex\StarCineplex\app\build\intermediates\exploded-aar\com.android.support\support-vector-drawable\23.3.0\AndroidManifest.xml:5:5-43
MERGED from [com.android.support:support-v4:23.3.0] E:\wooZy\Star Cineplex\StarCineplex\app\build\intermediates\exploded-aar\com.android.support\support-v4\23.3.0\AndroidManifest.xml:20:5-43
MERGED from [com.android.support:animated-vector-drawable:23.3.0] E:\wooZy\Star Cineplex\StarCineplex\app\build\intermediates\exploded-aar\com.android.support\animated-vector-drawable\23.3.0\AndroidManifest.xml:5:5-44
MERGED from [com.android.support:support-vector-drawable:23.3.0] E:\wooZy\Star Cineplex\StarCineplex\app\build\intermediates\exploded-aar\com.android.support\support-vector-drawable\23.3.0\AndroidManifest.xml:5:5-43
MERGED from [com.android.support:support-v4:23.3.0] E:\wooZy\Star Cineplex\StarCineplex\app\build\intermediates\exploded-aar\com.android.support\support-v4\23.3.0\AndroidManifest.xml:20:5-43
MERGED from [com.android.support:support-v4:23.3.0] E:\wooZy\Star Cineplex\StarCineplex\app\build\intermediates\exploded-aar\com.android.support\support-v4\23.3.0\AndroidManifest.xml:20:5-43
MERGED from [com.android.support:recyclerview-v7:23.3.0] E:\wooZy\Star Cineplex\StarCineplex\app\build\intermediates\exploded-aar\com.android.support\recyclerview-v7\23.3.0\AndroidManifest.xml:20:5-43
MERGED from [com.android.support:support-v4:23.3.0] E:\wooZy\Star Cineplex\StarCineplex\app\build\intermediates\exploded-aar\com.android.support\support-v4\23.3.0\AndroidManifest.xml:20:5-43
MERGED from [com.android.support:design:23.3.0] E:\wooZy\Star Cineplex\StarCineplex\app\build\intermediates\exploded-aar\com.android.support\design\23.3.0\AndroidManifest.xml:20:5-43
MERGED from [com.android.support:appcompat-v7:23.3.0] E:\wooZy\Star Cineplex\StarCineplex\app\build\intermediates\exploded-aar\com.android.support\appcompat-v7\23.3.0\AndroidManifest.xml:21:5-23:78
MERGED from [com.android.support:support-vector-drawable:23.3.0] E:\wooZy\Star Cineplex\StarCineplex\app\build\intermediates\exploded-aar\com.android.support\support-vector-drawable\23.3.0\AndroidManifest.xml:5:5-43
MERGED from [com.android.support:support-v4:23.3.0] E:\wooZy\Star Cineplex\StarCineplex\app\build\intermediates\exploded-aar\com.android.support\support-v4\23.3.0\AndroidManifest.xml:20:5-43
MERGED from [com.android.support:animated-vector-drawable:23.3.0] E:\wooZy\Star Cineplex\StarCineplex\app\build\intermediates\exploded-aar\com.android.support\animated-vector-drawable\23.3.0\AndroidManifest.xml:5:5-44
MERGED from [com.android.support:support-vector-drawable:23.3.0] E:\wooZy\Star Cineplex\StarCineplex\app\build\intermediates\exploded-aar\com.android.support\support-vector-drawable\23.3.0\AndroidManifest.xml:5:5-43
MERGED from [com.android.support:support-v4:23.3.0] E:\wooZy\Star Cineplex\StarCineplex\app\build\intermediates\exploded-aar\com.android.support\support-v4\23.3.0\AndroidManifest.xml:20:5-43
MERGED from [com.android.support:support-v4:23.3.0] E:\wooZy\Star Cineplex\StarCineplex\app\build\intermediates\exploded-aar\com.android.support\support-v4\23.3.0\AndroidManifest.xml:20:5-43
MERGED from [com.android.support:support-v4:23.3.0] E:\wooZy\Star Cineplex\StarCineplex\app\build\intermediates\exploded-aar\com.android.support\support-v4\23.3.0\AndroidManifest.xml:20:5-43
MERGED from [com.android.support:recyclerview-v7:23.3.0] E:\wooZy\Star Cineplex\StarCineplex\app\build\intermediates\exploded-aar\com.android.support\recyclerview-v7\23.3.0\AndroidManifest.xml:20:5-43
MERGED from [com.android.support:support-v4:23.3.0] E:\wooZy\Star Cineplex\StarCineplex\app\build\intermediates\exploded-aar\com.android.support\support-v4\23.3.0\AndroidManifest.xml:20:5-43
MERGED from [jp.wasabeef:recyclerview-animators:1.3.0] E:\wooZy\Star Cineplex\StarCineplex\app\build\intermediates\exploded-aar\jp.wasabeef\recyclerview-animators\1.3.0\AndroidManifest.xml:8:5-10:41
MERGED from [com.google.android.gms:play-services-ads:8.4.0] E:\wooZy\Star Cineplex\StarCineplex\app\build\intermediates\exploded-aar\com.google.android.gms\play-services-ads\8.4.0\AndroidManifest.xml:23:5-42
MERGED from [com.google.android.gms:play-services-basement:8.4.0] E:\wooZy\Star Cineplex\StarCineplex\app\build\intermediates\exploded-aar\com.google.android.gms\play-services-basement\8.4.0\AndroidManifest.xml:18:5-42
MERGED from [com.android.support:support-v4:23.3.0] E:\wooZy\Star Cineplex\StarCineplex\app\build\intermediates\exploded-aar\com.android.support\support-v4\23.3.0\AndroidManifest.xml:20:5-43
MERGED from [com.android.support:support-v4:23.3.0] E:\wooZy\Star Cineplex\StarCineplex\app\build\intermediates\exploded-aar\com.android.support\support-v4\23.3.0\AndroidManifest.xml:20:5-43
MERGED from [com.android.support:cardview-v7:23.3.0] E:\wooZy\Star Cineplex\StarCineplex\app\build\intermediates\exploded-aar\com.android.support\cardview-v7\23.3.0\AndroidManifest.xml:20:5-43
	tools:overrideLibrary
		ADDED from [com.android.support:appcompat-v7:23.3.0] E:\wooZy\Star Cineplex\StarCineplex\app\build\intermediates\exploded-aar\com.android.support\appcompat-v7\23.3.0\AndroidManifest.xml:23:9-75
	android:targetSdkVersion
		INJECTED from E:\wooZy\Star Cineplex\StarCineplex\app\src\main\AndroidManifest.xml
		INJECTED from E:\wooZy\Star Cineplex\StarCineplex\app\src\main\AndroidManifest.xml
	android:minSdkVersion
		INJECTED from E:\wooZy\Star Cineplex\StarCineplex\app\src\main\AndroidManifest.xml
		INJECTED from E:\wooZy\Star Cineplex\StarCineplex\app\src\main\AndroidManifest.xml
activity#com.google.android.gms.ads.AdActivity
ADDED from [com.google.android.gms:play-services-ads:8.4.0] E:\wooZy\Star Cineplex\StarCineplex\app\build\intermediates\exploded-aar\com.google.android.gms\play-services-ads\8.4.0\AndroidManifest.xml:26:9-29:64
	android:configChanges
		ADDED from [com.google.android.gms:play-services-ads:8.4.0] E:\wooZy\Star Cineplex\StarCineplex\app\build\intermediates\exploded-aar\com.google.android.gms\play-services-ads\8.4.0\AndroidManifest.xml:28:13-122
	android:theme
		ADDED from [com.google.android.gms:play-services-ads:8.4.0] E:\wooZy\Star Cineplex\StarCineplex\app\build\intermediates\exploded-aar\com.google.android.gms\play-services-ads\8.4.0\AndroidManifest.xml:29:13-61
	android:name
		ADDED from [com.google.android.gms:play-services-ads:8.4.0] E:\wooZy\Star Cineplex\StarCineplex\app\build\intermediates\exploded-aar\com.google.android.gms\play-services-ads\8.4.0\AndroidManifest.xml:27:13-65
activity#com.google.android.gms.ads.purchase.InAppPurchaseActivity
ADDED from [com.google.android.gms:play-services-ads:8.4.0] E:\wooZy\Star Cineplex\StarCineplex\app\build\intermediates\exploded-aar\com.google.android.gms\play-services-ads\8.4.0\AndroidManifest.xml:30:9-31:52
	android:theme
		ADDED from [com.google.android.gms:play-services-ads:8.4.0] E:\wooZy\Star Cineplex\StarCineplex\app\build\intermediates\exploded-aar\com.google.android.gms\play-services-ads\8.4.0\AndroidManifest.xml:31:13-50
	android:name
		ADDED from [com.google.android.gms:play-services-ads:8.4.0] E:\wooZy\Star Cineplex\StarCineplex\app\build\intermediates\exploded-aar\com.google.android.gms\play-services-ads\8.4.0\AndroidManifest.xml:30:19-91
meta-data#com.google.android.gms.version
ADDED from [com.google.android.gms:play-services-basement:8.4.0] E:\wooZy\Star Cineplex\StarCineplex\app\build\intermediates\exploded-aar\com.google.android.gms\play-services-basement\8.4.0\AndroidManifest.xml:21:9-23:69
	android:value
		ADDED from [com.google.android.gms:play-services-basement:8.4.0] E:\wooZy\Star Cineplex\StarCineplex\app\build\intermediates\exploded-aar\com.google.android.gms\play-services-basement\8.4.0\AndroidManifest.xml:23:13-66
	android:name
		ADDED from [com.google.android.gms:play-services-basement:8.4.0] E:\wooZy\Star Cineplex\StarCineplex\app\build\intermediates\exploded-aar\com.google.android.gms\play-services-basement\8.4.0\AndroidManifest.xml:22:13-58
